IMAGE	img_title	"art/tiles/TitleText.png"
IMAGE	img_mountains	"art/tiles/Mountains.png"	BEST
IMAGE	img_cloud01	"art/tiles/Cloud01.png"
IMAGE	img_cloud02	"art/tiles/Cloud02.png"
IMAGE	img_cloud03	"art/tiles/Cloud03.png"

SPRITE	spr_char	"art/sprites/char.png"		4	4	NONE
SPRITE	spr_enemy	"art/sprites/enemy.png"		2	2	NONE	20
SPRITE	spr_blaster	"art/sprites/blaster.png"	2	1	NONE